<svg width="114.64478" height="120.14587" version="1.1" viewBox="0 0 114.64477 120.14587" xmlns="http://www.w3.org/2000/svg">
 <g transform="matrix(.15041984 0 0 .15041984 0 46.563044)" fill="#7b7b7b">
  <g fill="#7b7b7b">
   <path d="m133.565 89.6c-36.824 0-66.783 29.959-66.783 66.783s29.959 66.783 66.783 66.783 66.783-29.959 66.783-66.783-29.959-66.783-66.783-66.783zm0 100.174c-18.412 0-33.391-14.979-33.391-33.391s14.979-33.391 33.391-33.391 33.391 14.979 33.391 33.391c.001 18.412-14.979 33.391-33.391 33.391z" fill="#7b7b7b"/>
  </g>
 </g>
 <g transform="matrix(.15041984 0 0 .15041984 0 46.563044)" fill="#7b7b7b">
  <g fill="#7b7b7b">
   <path d="m367.304 89.6c-36.824 0-66.783 29.959-66.783 66.783s29.959 66.783 66.783 66.783 66.783-29.959 66.783-66.783-29.959-66.783-66.783-66.783zm0 100.174c-18.412 0-33.391-14.979-33.391-33.391s14.979-33.391 33.391-33.391 33.391 14.979 33.391 33.391c.001 18.412-14.979 33.391-33.391 33.391z" fill="#7b7b7b"/>
  </g>
 </g>
 <g transform="matrix(.15041984 0 0 .15041984 0 46.563044)" fill="#a4a4a4">
  <g fill="#a4a4a4">
   <path d="m490.507 306.235-89.811 26.943v-27.648c0-9.081-7.255-16.453-16.282-16.674 65.597-8.426 116.456-64.621 116.456-132.473 0-73.648-59.917-133.565-133.565-133.565-50.231 0-94.067 27.877-116.87 68.968-22.803-41.09-66.639-68.968-116.87-68.968-73.648-.001-133.565 59.917-133.565 133.565 0 67.852 50.858 124.048 116.456 132.473-9.027.221-16.282 7.593-16.282 16.675v133.565c0 27.618 22.469 50.087 50.087 50.087h200.348c25.709 0 46.945-19.473 49.76-44.442l90.139 27.041c10.656 3.199 21.493-4.766 21.493-15.991v-133.565c-.001-11.168-10.789-19.207-21.494-15.991zm-140.355-17.4h-199.435c42.937-5.531 79.553-31.518 99.718-67.854 20.164 36.336 56.781 62.323 99.717 67.854zm-316.761-132.452c0-55.236 44.938-100.174 100.174-100.174s100.174 44.938 100.174 100.174-44.938 100.174-100.174 100.174-100.174-44.938-100.174-100.174zm333.913 282.713c0 9.206-7.49 16.696-16.696 16.696h-200.347c-9.206 0-16.696-7.49-16.696-16.696v-116.87h233.739v116.87zm-100.174-282.713c0-55.236 44.938-100.174 100.174-100.174s100.174 44.938 100.174 100.174-44.938 100.173-100.174 100.173-100.174-44.937-100.174-100.173zm211.479 276.969-77.913-23.374v-41.94l77.913-23.374z" fill="#a4a4a4"/>
  </g>
 </g>
 <g transform="matrix(.15041984 0 0 .15041984 0 46.563044)" fill="#7b7b7b">
  <g fill="#7b7b7b">
   <circle cx="183.65199" cy="372.31299" r="16.695999" fill="#7b7b7b"/>
  </g>
 </g>
 <g transform="matrix(.15041984 0 0 .15041984 0 46.563044)" fill="#7b7b7b">
  <g fill="#7b7b7b">
   <circle cx="250.435" cy="372.31299" r="16.695999" fill="#7b7b7b"/>
  </g>
 </g>
 <path d="m87.82329 40.208909a20.378107 20.378107 0 01-28.793995-.743788 20.378107 20.378107 0 01.71303-28.794772 20.378107 20.378107 0 0128.795518.682271 20.378107 20.378107 0 01-.651512 28.79623" fill="none" stroke="#7a7a7a" stroke-dasharray="24,6" stroke-linecap="square" stroke-width="6" style="paint-order:normal"/>
 <rect transform="rotate(154.6469)" x="-58.833488" y="-127.80808" width="1.712446" height="53.257065" ry=".85622299" fill="none" stroke="#7a7a7a" stroke-dasharray="14.24754941, 3.56188735" stroke-linecap="square" stroke-width="3.56188726" style="paint-order:normal"/>
</svg>
